{
  "mappings": {
    "_doc": {
      "properties": {
        "userId": {
          "type": "keyword"
        },
        "personId": {
          "type": "keyword"
        },
        "createdDate": {
          "type": "date"
        },
        "foreignIds": {
          "properties": {
            "facebook": {
              "type": "keyword"
            },
            "twitter": {
              "type": "keyword"
            }
          }
        },
        "photos": {
          "type": "keyword",
          "index": "false"
        },
        "network": {
          "type": "keyword"
        },
        "threadNetwork": {
          "type": "keyword"
        },
        "content": {
          "type": "text"
        },
        "raw": {
          "type": "object",
          "dynamic": false
        },
        "type": {
          "type": "join",
          "relations": {
            "post": "reply",
            "reply": "subReply"
          }
        },
        "thread": {
          "type": "keyword"
        },
        "metrics": {
          "type": "object",
          "dynamic": false
        }
      }
    }
  }
}