{
  "mappings": {
    "_doc": {
      "properties": {
        "userId": {
          "type": "keyword"
        },
        "createdDate": {
          "type": "date"
        },
        "reach": {
          "type": "integer"
        }
      }
    }
  }
}